{
  "fatto": [
    "^((considerato|ritenuto|premesso),?( ?in)? )?fatto[:.;]?$"
  ],
  "diritto": [
    "^((considerato|ritenuto|premesso),?( ?in)? )?diritto[:.;]?$",
    "^ritenuto[,;.]?$"
  ],
  "patterns": [
    "{{fatto}}",
    "{{diritto}}"
  ]
}
